EESchema Schematic File Version 2
LIBS:power
LIBS:device
LIBS:transistors
LIBS:conn
LIBS:linear
LIBS:regul
LIBS:74xx
LIBS:cmos4000
LIBS:adc-dac
LIBS:memory
LIBS:xilinx
LIBS:microcontrollers
LIBS:dsp
LIBS:microchip
LIBS:analog_switches
LIBS:motorola
LIBS:texas
LIBS:intel
LIBS:audio
LIBS:interface
LIBS:digital-audio
LIBS:philips
LIBS:display
LIBS:cypress
LIBS:siliconi
LIBS:opto
LIBS:atmel
LIBS:contrib
LIBS:valves
LIBS:ettelib
LIBS:Libre-cache
EELAYER 25 0
EELAYER END
$Descr A4 11693 8268
encoding utf-8
Sheet 1 1
Title "Libre LoRa end device"
Date "2017-04-03"
Rev "A"
Comp "ESPOTEL"
Comment1 ""
Comment2 "44610"
Comment3 "TL"
Comment4 ""
$EndDescr
$Comp
L Pro_Micro U1
U 1 1 58D2448E
P 1800 3050
F 0 "U1" H 1900 3100 60  0000 C CNN
F 1 "Pro_Micro" H 2000 1750 60  0000 C CNN
F 2 "ettepcb:promicro" H 1800 3050 60  0001 C CNN
F 3 "" H 1800 3050 60  0001 C CNN
	1    1800 3050
	1    0    0    -1  
$EndComp
$Comp
L RFM95W U2
U 1 1 58D24BA9
P 6050 3150
F 0 "U2" H 6150 3200 60  0000 C CNN
F 1 "RFM95W" H 6250 2200 60  0000 C CNN
F 2 "ettepcb:RFM95W" H 6050 3100 60  0001 C CNN
F 3 "" H 6050 3100 60  0001 C CNN
	1    6050 3150
	1    0    0    -1  
$EndComp
Entry Wire Line
	9350 450  9450 550 
$Comp
L +3V3 #PWR01
U 1 1 58D24C40
P 3150 3000
F 0 "#PWR01" H 3150 2850 50  0001 C CNN
F 1 "+3V3" H 3150 3140 50  0000 C CNN
F 2 "" H 3150 3000 50  0000 C CNN
F 3 "" H 3150 3000 50  0000 C CNN
	1    3150 3000
	1    0    0    -1  
$EndComp
$Comp
L GND #PWR02
U 1 1 58D24C6A
P 5800 4000
F 0 "#PWR02" H 5800 3750 50  0001 C CNN
F 1 "GND" H 5800 3850 50  0000 C CNN
F 2 "" H 5800 4000 50  0000 C CNN
F 3 "" H 5800 4000 50  0000 C CNN
	1    5800 4000
	1    0    0    -1  
$EndComp
$Comp
L GND #PWR03
U 1 1 58D24C7B
P 7100 4000
F 0 "#PWR03" H 7100 3750 50  0001 C CNN
F 1 "GND" H 7100 3850 50  0000 C CNN
F 2 "" H 7100 4000 50  0000 C CNN
F 3 "" H 7100 4000 50  0000 C CNN
	1    7100 4000
	1    0    0    -1  
$EndComp
$Comp
L GND #PWR04
U 1 1 58D24C90
P 3250 3200
F 0 "#PWR04" H 3250 2950 50  0001 C CNN
F 1 "GND" H 3250 3050 50  0000 C CNN
F 2 "" H 3250 3200 50  0000 C CNN
F 3 "" H 3250 3200 50  0000 C CNN
	1    3250 3200
	1    0    0    -1  
$EndComp
$Comp
L GND #PWR05
U 1 1 58D24CEF
P 1150 3450
F 0 "#PWR05" H 1150 3200 50  0001 C CNN
F 1 "GND" H 1150 3300 50  0000 C CNN
F 2 "" H 1150 3450 50  0000 C CNN
F 3 "" H 1150 3450 50  0000 C CNN
	1    1150 3450
	1    0    0    -1  
$EndComp
$Comp
L +3V3 #PWR06
U 1 1 58D24D95
P 7100 3050
F 0 "#PWR06" H 7100 2900 50  0001 C CNN
F 1 "+3V3" H 7100 3190 50  0000 C CNN
F 2 "" H 7100 3050 50  0000 C CNN
F 3 "" H 7100 3050 50  0000 C CNN
	1    7100 3050
	1    0    0    -1  
$EndComp
Text Label 5550 3350 0    60   ~ 0
MISO
Text Label 5550 3450 0    60   ~ 0
MOSI
Text Label 5550 3550 0    60   ~ 0
SCK
Text Label 5550 3650 0    60   ~ 0
SS
Text Label 2950 4100 0    60   ~ 0
MOSI
Text Label 2950 4000 0    60   ~ 0
MISO
Text Label 2950 3900 0    60   ~ 0
SCK
Text Label 1350 3500 0    60   ~ 0
SDA
Text Label 1350 3600 0    60   ~ 0
SCL
Text Label 1350 3100 0    60   ~ 0
TXD
Text Label 1350 3200 0    60   ~ 0
RXD
Text Label 2850 3100 0    60   ~ 0
RAW
Text Label 2950 3500 0    60   ~ 0
SS
Text Label 7200 3250 0    60   ~ 0
DIO2
Text Label 7200 3350 0    60   ~ 0
DIO1
Text Label 7200 3450 0    60   ~ 0
DIO0
Text Label 5500 3750 0    60   ~ 0
RESET
Text Label 1300 4100 0    60   ~ 0
RESET
Text Label 7200 3950 0    60   ~ 0
ANT
$Comp
L BNC P1
U 1 1 58DB909A
P 8400 3950
F 0 "P1" H 8410 4070 50  0000 C CNN
F 1 "SMA" H 8500 3850 50  0000 C CNN
F 2 "ettepcb:WM5536" H 8400 3950 50  0001 C CNN
F 3 "" H 8400 3950 50  0000 C CNN
	1    8400 3950
	1    0    0    -1  
$EndComp
$Comp
L GND #PWR07
U 1 1 58DB9141
P 8400 4200
F 0 "#PWR07" H 8400 3950 50  0001 C CNN
F 1 "GND" H 8400 4050 50  0000 C CNN
F 2 "" H 8400 4200 50  0000 C CNN
F 3 "" H 8400 4200 50  0000 C CNN
	1    8400 4200
	1    0    0    -1  
$EndComp
$Comp
L RF_Shield_One_Piece J1
U 1 1 58DCAA8C
P 6500 4600
F 0 "J1" H 6500 4800 50  0000 C CNN
F 1 "RF_Shield_One_Piece" H 6500 4700 50  0000 C CNN
F 2 "ettepcb:S02-25200300-2" H 6500 4500 50  0001 C CNN
F 3 "" H 6500 4500 50  0000 C CNN
	1    6500 4600
	1    0    0    -1  
$EndComp
$Comp
L GND #PWR08
U 1 1 58DCABD5
P 6500 5050
F 0 "#PWR08" H 6500 4800 50  0001 C CNN
F 1 "GND" H 6500 4900 50  0000 C CNN
F 2 "" H 6500 5050 50  0000 C CNN
F 3 "" H 6500 5050 50  0000 C CNN
	1    6500 5050
	1    0    0    -1  
$EndComp
NoConn ~ 1600 3700
NoConn ~ 1600 3800
NoConn ~ 1600 3900
NoConn ~ 1600 4000
NoConn ~ 1600 4200
NoConn ~ 2800 4200
NoConn ~ 2800 3300
NoConn ~ 7050 3650
NoConn ~ 7050 3750
NoConn ~ 5850 3850
$Comp
L R R3
U 1 1 58E15607
P 4300 3250
F 0 "R3" V 4380 3250 50  0000 C CNN
F 1 "0R" V 4300 3250 50  0000 C CNN
F 2 "Resistors_SMD:R_0402_NoSilk" V 4230 3250 50  0001 C CNN
F 3 "" H 4300 3250 50  0000 C CNN
	1    4300 3250
	1    0    0    -1  
$EndComp
$Comp
L R R2
U 1 1 58E1566D
P 4500 3250
F 0 "R2" V 4580 3250 50  0000 C CNN
F 1 "0R" V 4500 3250 50  0000 C CNN
F 2 "Resistors_SMD:R_0402_NoSilk" V 4430 3250 50  0001 C CNN
F 3 "" H 4500 3250 50  0000 C CNN
	1    4500 3250
	1    0    0    -1  
$EndComp
$Comp
L R R1
U 1 1 58E15693
P 4700 3250
F 0 "R1" V 4780 3250 50  0000 C CNN
F 1 "0R" V 4700 3250 50  0000 C CNN
F 2 "Resistors_SMD:R_0402_NoSilk" V 4630 3250 50  0001 C CNN
F 3 "" H 4700 3250 50  0000 C CNN
	1    4700 3250
	1    0    0    -1  
$EndComp
$Comp
L L L1
U 1 1 58E15D85
P 7800 3950
F 0 "L1" V 7750 3950 50  0000 C CNN
F 1 "0R" V 7875 3950 50  0000 C CNN
F 2 "Resistors_SMD:R_0402_NoSilk" H 7800 3950 50  0001 C CNN
F 3 "" H 7800 3950 50  0000 C CNN
	1    7800 3950
	0    -1   -1   0   
$EndComp
$Comp
L C C1
U 1 1 58E15DF6
P 7600 4200
F 0 "C1" H 7625 4300 50  0000 L CNN
F 1 "TBD" H 7625 4100 50  0000 L CNN
F 2 "Resistors_SMD:R_0402_NoSilk" H 7638 4050 50  0001 C CNN
F 3 "" H 7600 4200 50  0000 C CNN
	1    7600 4200
	1    0    0    -1  
$EndComp
$Comp
L C C2
U 1 1 58E15E3A
P 8050 4200
F 0 "C2" H 8075 4300 50  0000 L CNN
F 1 "TBD" H 8075 4100 50  0000 L CNN
F 2 "Resistors_SMD:R_0402_NoSilk" H 8088 4050 50  0001 C CNN
F 3 "" H 8050 4200 50  0000 C CNN
	1    8050 4200
	1    0    0    -1  
$EndComp
$Comp
L GND #PWR09
U 1 1 58E16023
P 7600 4400
F 0 "#PWR09" H 7600 4150 50  0001 C CNN
F 1 "GND" H 7600 4250 50  0000 C CNN
F 2 "" H 7600 4400 50  0000 C CNN
F 3 "" H 7600 4400 50  0000 C CNN
	1    7600 4400
	1    0    0    -1  
$EndComp
$Comp
L GND #PWR010
U 1 1 58E1605D
P 8050 4400
F 0 "#PWR010" H 8050 4150 50  0001 C CNN
F 1 "GND" H 8050 4250 50  0000 C CNN
F 2 "" H 8050 4400 50  0000 C CNN
F 3 "" H 8050 4400 50  0000 C CNN
	1    8050 4400
	1    0    0    -1  
$EndComp
$Comp
L C C3
U 1 1 58E16747
P 7250 3700
F 0 "C3" H 7275 3800 50  0000 L CNN
F 1 "100nF" H 7275 3600 50  0000 L CNN
F 2 "Resistors_SMD:R_0603" H 7288 3550 50  0001 C CNN
F 3 "" H 7250 3700 50  0000 C CNN
	1    7250 3700
	1    0    0    -1  
$EndComp
NoConn ~ 1300 3100
NoConn ~ 1300 3200
NoConn ~ 1300 3500
NoConn ~ 1300 3600
$Comp
L CONN_01X02 P3
U 1 1 58E16D41
P 3550 4850
F 0 "P3" H 3550 5000 50  0000 C CNN
F 1 "CONN_01X02" V 3650 4850 50  0000 C CNN
F 2 "Socket_Strips:Socket_Strip_Straight_1x02_Pitch2.54mm" H 3550 4850 50  0001 C CNN
F 3 "" H 3550 4850 50  0000 C CNN
	1    3550 4850
	1    0    0    -1  
$EndComp
$Comp
L CONN_01X02 P2
U 1 1 58E16D92
P 4800 4850
F 0 "P2" H 4800 5000 50  0000 C CNN
F 1 "CONN_01X02" V 4900 4850 50  0000 C CNN
F 2 "Socket_Strips:Socket_Strip_Straight_1x02_Pitch2.54mm" H 4800 4850 50  0001 C CNN
F 3 "" H 4800 4850 50  0000 C CNN
	1    4800 4850
	1    0    0    -1  
$EndComp
$Comp
L GND #PWR011
U 1 1 58E16F15
P 3300 4950
F 0 "#PWR011" H 3300 4700 50  0001 C CNN
F 1 "GND" H 3300 4800 50  0000 C CNN
F 2 "" H 3300 4950 50  0000 C CNN
F 3 "" H 3300 4950 50  0000 C CNN
	1    3300 4950
	1    0    0    -1  
$EndComp
$Comp
L GND #PWR012
U 1 1 58E16F47
P 4550 4950
F 0 "#PWR012" H 4550 4700 50  0001 C CNN
F 1 "GND" H 4550 4800 50  0000 C CNN
F 2 "" H 4550 4950 50  0000 C CNN
F 3 "" H 4550 4950 50  0000 C CNN
	1    4550 4950
	1    0    0    -1  
$EndComp
Text Label 3050 4800 0    60   ~ 0
RAW
$Comp
L +3V3 #PWR013
U 1 1 58E16FBD
P 4550 4750
F 0 "#PWR013" H 4550 4600 50  0001 C CNN
F 1 "+3V3" H 4550 4890 50  0000 C CNN
F 2 "" H 4550 4750 50  0000 C CNN
F 3 "" H 4550 4750 50  0000 C CNN
	1    4550 4750
	1    0    0    -1  
$EndComp
Wire Wire Line
	5800 4000 5800 3250
Wire Wire Line
	5800 3250 5850 3250
Wire Wire Line
	5850 3950 5800 3950
Connection ~ 5800 3950
Wire Wire Line
	7050 3850 7250 3850
Wire Wire Line
	7100 3850 7100 4000
Wire Wire Line
	2800 3200 3250 3200
Wire Wire Line
	1150 3400 1600 3400
Wire Wire Line
	1300 3400 1300 3300
Wire Wire Line
	1300 3300 1600 3300
Wire Wire Line
	5500 3350 5850 3350
Wire Wire Line
	5500 3450 5850 3450
Wire Wire Line
	5500 3550 5850 3550
Wire Wire Line
	5500 3650 5850 3650
Wire Wire Line
	2800 3400 3150 3400
Wire Wire Line
	7100 3050 7100 3550
Wire Wire Line
	7050 3550 7250 3550
Wire Wire Line
	7050 3950 7650 3950
Wire Wire Line
	3200 4100 2800 4100
Wire Wire Line
	3200 4000 2800 4000
Wire Wire Line
	3200 3900 2800 3900
Wire Wire Line
	1150 3400 1150 3450
Connection ~ 1300 3400
Wire Wire Line
	1600 3500 1300 3500
Wire Wire Line
	1600 3600 1300 3600
Wire Wire Line
	1600 3100 1300 3100
Wire Wire Line
	1600 3200 1300 3200
Wire Wire Line
	3150 3400 3150 3000
Wire Wire Line
	2800 3100 3050 3100
Wire Wire Line
	2800 3800 4700 3800
Wire Wire Line
	1250 4100 1600 4100
Wire Wire Line
	7050 3250 7450 3250
Wire Wire Line
	7050 3350 7550 3350
Wire Wire Line
	7050 3450 7650 3450
Wire Wire Line
	5850 3750 5500 3750
Wire Wire Line
	8400 4150 8400 4200
Wire Wire Line
	6500 5000 6500 5050
Wire Wire Line
	4700 2800 7450 2800
Wire Wire Line
	7450 2800 7450 3250
Wire Wire Line
	7550 3350 7550 2700
Wire Wire Line
	7550 2700 4500 2700
Wire Wire Line
	4300 2600 7650 2600
Wire Wire Line
	7650 2600 7650 3450
Wire Wire Line
	4300 3100 4300 2600
Wire Wire Line
	4500 2700 4500 3100
Wire Wire Line
	4700 3100 4700 2800
Wire Wire Line
	2800 3700 4500 3700
Wire Wire Line
	4500 3700 4500 3400
Wire Wire Line
	2800 3500 3200 3500
Wire Wire Line
	7600 4050 7600 3950
Connection ~ 7600 3950
Wire Wire Line
	8050 4050 8050 3950
Wire Wire Line
	7950 3950 8250 3950
Wire Wire Line
	7600 4350 7600 4400
Wire Wire Line
	8050 4350 8050 4400
Connection ~ 8050 3950
Connection ~ 7100 3550
Connection ~ 7100 3850
Wire Wire Line
	3350 4800 3000 4800
Wire Wire Line
	3350 4900 3300 4900
Wire Wire Line
	3300 4900 3300 4950
Wire Wire Line
	4600 4900 4550 4900
Wire Wire Line
	4550 4900 4550 4950
Wire Wire Line
	4600 4800 4550 4800
Wire Wire Line
	4550 4800 4550 4750
Wire Wire Line
	2800 3600 4300 3600
Wire Wire Line
	4300 3600 4300 3400
Wire Wire Line
	4700 3800 4700 3400
$EndSCHEMATC
